{"page":"1","per_page":15,"pages":50,"total":750,"shots":[{"id":1673354,"title":"CG Hubs - Detail View","description":"\u003Cp\u003ELive template for http://cghubs.com - an indie CG community.\u003C/p\u003E","height":600,"width":800,"likes_count":0,"comments_count":0,"rebounds_count":0,"url":"http://dribbble.com/shots/1673354-CG-Hubs-Detail-View","short_url":"http://drbl.in/lURU","views_count":0,"rebound_source_id":null,"image_url":"https://d13yacurqjgara.cloudfront.net/users/36420/screenshots/1673354/2.jpg","image_teaser_url":"https://d13yacurqjgara.cloudfront.net/users/36420/screenshots/1673354/2_teaser.jpg","image_400_url":"https://d13yacurqjgara.cloudfront.net/users/36420/screenshots/1673354/2_1x.jpg","player":{"id":36420,"name":"Ciprian Popescu","location":"Dublin, Ireland","followers_count":2,"draftees_count":0,"likes_count":7,"likes_received_count":31,"comments_count":1,"comments_received_count":9,"rebounds_count":1,"rebounds_received_count":1,"url":"http://dribbble.com/ciprian","avatar_url":"https://d13yacurqjgara.cloudfront.net/users/36420/avatars/normal/avatar-p.jpg?1380812640","username":"ciprian","twitter_screen_name":"getbutterfly","website_url":"http://getbutterfly.com","drafted_by_player_id":5379,"shots_count":18,"following_count":9,"created_at":"2011/05/22 08:30:05 -0400"},"created_at":"2014/08/06 10:20:36 -0400"},{"id":1673353,"title":"Stationary Mockup (Free)","description":"\u003Cp\u003EDownload it : http://www.blugraphic.com/2014/08/06/free-stationary-mockup-template-psd-smart-object/\u003C/p\u003E","height":300,"width":400,"likes_count":0,"comments_count":0,"rebounds_count":0,"url":"http://dribbble.com/shots/1673353-Stationary-Mockup-Free","short_url":"http://drbl.in/lURT","views_count":0,"rebound_source_id":null,"image_url":"https://d13yacurqjgara.cloudfront.net/users/59145/screenshots/1673353/dribb.jpg","image_teaser_url":"https://d13yacurqjgara.cloudfront.net/users/59145/screenshots/1673353/dribb_teaser.jpg","player":{"id":59145,"name":"Wassim","location":"Solidere, Beirut, Lebanon","followers_count":411,"draftees_count":0,"likes_count":93,"likes_received_count":2456,"comments_count":48,"comments_received_count":142,"rebounds_count":0,"rebounds_received_count":1,"url":"http://dribbble.com/blugraphic","avatar_url":"https://d13yacurqjgara.cloudfront.net/users/59145/avatars/normal/Untitled-1.jpg?1398159375","username":"blugraphic","twitter_screen_name":"blugraphic","website_url":"http://blugraphic.com","drafted_by_player_id":10881,"shots_count":212,"following_count":42,"created_at":"2011/09/02 10:55:36 -0400"},"created_at":"2014/08/06 10:20:11 -0400"},{"id":1673352,"title":"CG Hubs - Homepage","description":"\u003Cp\u003ELive template for http://cghubs.com - an indie CG community.\u003C/p\u003E","height":600,"width":800,"likes_count":1,"comments_count":0,"rebounds_count":0,"url":"http://dribbble.com/shots/1673352-CG-Hubs-Homepage","short_url":"http://drbl.in/lURS","views_count":3,"rebound_source_id":null,"image_url":"https://d13yacurqjgara.cloudfront.net/users/36420/screenshots/1673352/1.jpg","image_teaser_url":"https://d13yacurqjgara.cloudfront.net/users/36420/screenshots/1673352/1_teaser.jpg","image_400_url":"https://d13yacurqjgara.cloudfront.net/users/36420/screenshots/1673352/1_1x.jpg","player":{"id":36420,"name":"Ciprian Popescu","location":"Dublin, Ireland","followers_count":2,"draftees_count":0,"likes_count":7,"likes_received_count":31,"comments_count":1,"comments_received_count":9,"rebounds_count":1,"rebounds_received_count":1,"url":"http://dribbble.com/ciprian","avatar_url":"https://d13yacurqjgara.cloudfront.net/users/36420/avatars/normal/avatar-p.jpg?1380812640","username":"ciprian","twitter_screen_name":"getbutterfly","website_url":"http://getbutterfly.com","drafted_by_player_id":5379,"shots_count":18,"following_count":9,"created_at":"2011/05/22 08:30:05 -0400"},"created_at":"2014/08/06 10:19:03 -0400"},{"id":1673350,"title":"Monocle #74","description":"\u003Cp\u003EIllustrations for Monocle Magazine\u003C/p\u003E\n\n\u003Cp\u003EArt Direction: Jay Yeo\u003C/p\u003E","height":300,"width":400,"likes_count":0,"comments_count":0,"rebounds_count":0,"url":"http://dribbble.com/shots/1673350-Monocle-74","short_url":"http://drbl.in/lURQ","views_count":1,"rebound_source_id":null,"image_url":"https://d13yacurqjgara.cloudfront.net/users/617530/screenshots/1673350/monocle__74.jpg","image_teaser_url":"https://d13yacurqjgara.cloudfront.net/users/617530/screenshots/1673350/monocle__74_teaser.jpg","player":{"id":617530,"name":"Donghyun Lim","location":"Seoul, South Korea","followers_count":50,"draftees_count":0,"likes_count":0,"likes_received_count":297,"comments_count":0,"comments_received_count":15,"rebounds_count":0,"rebounds_received_count":0,"url":"http://dribbble.com/donghyun-lim","avatar_url":"https://d13yacurqjgara.cloudfront.net/users/617530/avatars/normal/de08a10e1218f65276327c249cf9314b.jpg?1405872682","username":"donghyun-lim","twitter_screen_name":null,"website_url":"https://www.behance.net/donghyun-lim","drafted_by_player_id":364183,"shots_count":34,"following_count":1,"created_at":"2014/07/20 12:07:08 -0400"},"created_at":"2014/08/06 10:18:59 -0400"},{"id":1673349,"title":"Brain","description":null,"height":300,"width":400,"likes_count":0,"comments_count":0,"rebounds_count":0,"url":"http://dribbble.com/shots/1673349-Brain","short_url":"http://drbl.in/lURP","views_count":1,"rebound_source_id":null,"image_url":"https://d13yacurqjgara.cloudfront.net/users/601485/screenshots/1673349/vjpu.png","image_teaser_url":"https://d13yacurqjgara.cloudfront.net/users/601485/screenshots/1673349/vjpu_teaser.png","player":{"id":601485,"name":"Anna Kurzakova","location":"Russian Federation, Krasnoyarsk ","followers_count":17,"draftees_count":0,"likes_count":3,"likes_received_count":160,"comments_count":2,"comments_received_count":17,"rebounds_count":0,"rebounds_received_count":1,"url":"http://dribbble.com/Guidewom","avatar_url":"https://d13yacurqjgara.cloudfront.net/users/601485/avatars/normal/6ce3c748829985b2d4e57dee2997b777.png?1406892912","username":"Guidewom","twitter_screen_name":"Anna_Kurzakova","website_url":"https://www.behance.net/guidewom","drafted_by_player_id":257123,"shots_count":15,"following_count":1,"created_at":"2014/06/23 22:45:35 -0400"},"created_at":"2014/08/06 10:18:28 -0400"},{"id":1673348,"title":"Snack Time Pt.2","description":"\u003Cp\u003EStill exploring :) Thanks for your previous feedbacks.\u003C/p\u003E\n\n\u003Cp\u003EHave a nice day!\u003C/p\u003E","height":600,"width":800,"likes_count":2,"comments_count":0,"rebounds_count":0,"url":"http://dribbble.com/shots/1673348-Snack-Time-Pt-2","short_url":"http://drbl.in/lURO","views_count":6,"rebound_source_id":1661691,"image_url":"https://d13yacurqjgara.cloudfront.net/users/267247/screenshots/1673348/snack_cooking.png","image_teaser_url":"https://d13yacurqjgara.cloudfront.net/users/267247/screenshots/1673348/snack_cooking_teaser.png","image_400_url":"https://d13yacurqjgara.cloudfront.net/users/267247/screenshots/1673348/snack_cooking_1x.png","player":{"id":267247,"name":"Vincent Tantardini","location":"Lyon, France","followers_count":3011,"draftees_count":4,"likes_count":8010,"likes_received_count":5938,"comments_count":2568,"comments_received_count":529,"rebounds_count":5,"rebounds_received_count":10,"url":"http://dribbble.com/vt","avatar_url":"https://d13yacurqjgara.cloudfront.net/users/267247/avatars/normal/cd0ab869e19b4d8588e01cb9e257eeed.jpg?1407200488","username":"vt","twitter_screen_name":"vtcreative","website_url":"http://www.vtcreative.fr/en/","drafted_by_player_id":110308,"shots_count":41,"following_count":97,"created_at":"2013/01/18 15:21:35 -0500"},"created_at":"2014/08/06 10:18:06 -0400"},{"id":1673347,"title":"rankseller.de Redesign - Advertiser Subpage","description":"\u003Cp\u003EThe brand new rankseller.de redesign is finally live! \n\u003Cbr /\u003Ewww.rankseller.de/functions/advertiser\u003C/p\u003E","height":600,"width":800,"likes_count":0,"comments_count":0,"rebounds_count":0,"url":"http://dribbble.com/shots/1673347-rankseller-de-Redesign-Advertiser-Subpage","short_url":"http://drbl.in/lURN","views_count":1,"rebound_source_id":null,"image_url":"https://d13yacurqjgara.cloudfront.net/users/365645/screenshots/1673347/rankseller2.jpg","image_teaser_url":"https://d13yacurqjgara.cloudfront.net/users/365645/screenshots/1673347/rankseller2_teaser.jpg","image_400_url":"https://d13yacurqjgara.cloudfront.net/users/365645/screenshots/1673347/rankseller2_1x.jpg","player":{"id":365645,"name":"Dennis Kats","location":"Germany","followers_count":30,"draftees_count":0,"likes_count":7,"likes_received_count":181,"comments_count":0,"comments_received_count":14,"rebounds_count":0,"rebounds_received_count":0,"url":"http://dribbble.com/denkats","avatar_url":"https://d13yacurqjgara.cloudfront.net/users/365645/avatars/normal/ava.jpg?1398171855","username":"denkats","twitter_screen_name":null,"website_url":"http://www.denkats.com","drafted_by_player_id":300948,"shots_count":5,"following_count":4,"created_at":"2013/07/10 11:07:35 -0400"},"created_at":"2014/08/06 10:17:47 -0400"},{"id":1673346,"title":"Le Cras Dentistry","description":null,"height":600,"width":800,"likes_count":1,"comments_count":0,"rebounds_count":0,"url":"http://dribbble.com/shots/1673346-Le-Cras-Dentistry","short_url":"http://drbl.in/lURM","views_count":3,"rebound_source_id":null,"image_url":"https://d13yacurqjgara.cloudfront.net/users/82190/screenshots/1673346/lecras_dribbble.png","image_teaser_url":"https://d13yacurqjgara.cloudfront.net/users/82190/screenshots/1673346/lecras_dribbble_teaser.png","image_400_url":"https://d13yacurqjgara.cloudfront.net/users/82190/screenshots/1673346/lecras_dribbble_1x.png","player":{"id":82190,"name":"Clif Dixon","location":"Gastonia, NC","followers_count":111,"draftees_count":0,"likes_count":144,"likes_received_count":142,"comments_count":20,"comments_received_count":17,"rebounds_count":2,"rebounds_received_count":2,"url":"http://dribbble.com/CDixonDesign","avatar_url":"https://d13yacurqjgara.cloudfront.net/users/82190/avatars/normal/FB1.jpg?1361409130","username":"CDixonDesign","twitter_screen_name":"CDixonDesign","website_url":"http://cargocollective.com/cdixondesign","drafted_by_player_id":142425,"shots_count":15,"following_count":164,"created_at":"2011/12/08 12:09:42 -0500"},"created_at":"2014/08/06 10:17:19 -0400"},{"id":1673344,"title":"Home Screen Progress shots","description":"\u003Cp\u003ERenovating the shake home page, more to come!\u003C/p\u003E","height":600,"width":800,"likes_count":0,"comments_count":0,"rebounds_count":0,"url":"http://dribbble.com/shots/1673344-Home-Screen-Progress-shots","short_url":"http://drbl.in/lURK","views_count":0,"rebound_source_id":null,"image_url":"https://d13yacurqjgara.cloudfront.net/users/598368/screenshots/1673344/imac2screens.png","image_teaser_url":"https://d13yacurqjgara.cloudfront.net/users/598368/screenshots/1673344/imac2screens_teaser.png","image_400_url":"https://d13yacurqjgara.cloudfront.net/users/598368/screenshots/1673344/imac2screens_1x.png","player":{"id":598368,"name":"iris","location":null,"followers_count":2,"draftees_count":0,"likes_count":0,"likes_received_count":25,"comments_count":0,"comments_received_count":1,"rebounds_count":0,"rebounds_received_count":0,"url":"http://dribbble.com/irissprague1","avatar_url":"https://d13yacurqjgara.cloudfront.net/users/598368/avatars/normal/188d8803a223cbeffb2b192b81c67227.png?1406824425","username":"irissprague1","twitter_screen_name":null,"website_url":"http://irissprague.com","drafted_by_player_id":489481,"shots_count":6,"following_count":2,"created_at":"2014/06/18 12:16:57 -0400"},"created_at":"2014/08/06 10:16:36 -0400"},{"id":1673343,"title":"Golden - Unveiled Magazine","description":"\u003Cp\u003EAnother from the magazine, this time a page for renowned Make-up artist Charlotte Tilbury.\u003C/p\u003E","height":600,"width":800,"likes_count":0,"comments_count":0,"rebounds_count":0,"url":"http://dribbble.com/shots/1673343-Golden-Unveiled-Magazine","short_url":"http://drbl.in/lURJ","views_count":21,"rebound_source_id":null,"image_url":"https://d13yacurqjgara.cloudfront.net/users/61921/screenshots/1673343/golden.png","image_teaser_url":"https://d13yacurqjgara.cloudfront.net/users/61921/screenshots/1673343/golden_teaser.png","image_400_url":"https://d13yacurqjgara.cloudfront.net/users/61921/screenshots/1673343/golden_1x.png","player":{"id":61921,"name":"Damian Kidd","location":"Newcastle Upon Tyne","followers_count":1828,"draftees_count":19,"likes_count":14740,"likes_received_count":9707,"comments_count":1315,"comments_received_count":1005,"rebounds_count":63,"rebounds_received_count":47,"url":"http://dribbble.com/damiankidd","avatar_url":"https://d13yacurqjgara.cloudfront.net/users/61921/avatars/normal/fb-dk.png?1399919303","username":"damiankidd","twitter_screen_name":"Damian_Kidd","website_url":"http://www.damiankidd.co.uk","drafted_by_player_id":39,"shots_count":213,"following_count":1539,"created_at":"2011/09/15 06:09:13 -0400"},"created_at":"2014/08/06 10:15:42 -0400"},{"id":1673342,"title":"Growing In The Light","description":"\u003Cp\u003EA concept for an upcoming conference for Anabaptist educators and board members. Any feedback would be helpful.\u003C/p\u003E","height":600,"width":800,"likes_count":0,"comments_count":0,"rebounds_count":0,"url":"http://dribbble.com/shots/1673342-Growing-In-The-Light","short_url":"http://drbl.in/lURI","views_count":0,"rebound_source_id":null,"image_url":"https://d13yacurqjgara.cloudfront.net/users/49292/screenshots/1673342/growing-in-the-light4.jpg","image_teaser_url":"https://d13yacurqjgara.cloudfront.net/users/49292/screenshots/1673342/growing-in-the-light4_teaser.jpg","image_400_url":"https://d13yacurqjgara.cloudfront.net/users/49292/screenshots/1673342/growing-in-the-light4_1x.jpg","player":{"id":49292,"name":"Jordan A. Kauffman","location":"Indiana","followers_count":247,"draftees_count":5,"likes_count":5775,"likes_received_count":339,"comments_count":180,"comments_received_count":77,"rebounds_count":12,"rebounds_received_count":12,"url":"http://dribbble.com/kauffman_jordan","avatar_url":"https://d13yacurqjgara.cloudfront.net/users/49292/avatars/original/Screen%20shot%202011-06-24%20at%204.55.39%20PM.png?1312072341","username":"kauffman_jordan","twitter_screen_name":"kauffman_jordan","website_url":"http://cargocollective.com/jordanak","drafted_by_player_id":39,"shots_count":66,"following_count":1755,"created_at":"2011/07/30 09:31:19 -0400"},"created_at":"2014/08/06 10:15:36 -0400"},{"id":1673339,"title":"Com Ceteza 2 Copy","description":null,"height":300,"width":400,"likes_count":1,"comments_count":0,"rebounds_count":0,"url":"http://dribbble.com/shots/1673339-Com-Ceteza-2-Copy","short_url":"http://drbl.in/lURF","views_count":1,"rebound_source_id":null,"image_url":"https://d13yacurqjgara.cloudfront.net/users/627614/screenshots/1673339/com_ceteza_2_copy.jpg","image_teaser_url":"https://d13yacurqjgara.cloudfront.net/users/627614/screenshots/1673339/com_ceteza_2_copy_teaser.jpg","player":{"id":627614,"name":"Rafaela Decarli","location":"Porto Alegre","followers_count":1,"draftees_count":0,"likes_count":4,"likes_received_count":1,"comments_count":0,"comments_received_count":0,"rebounds_count":0,"rebounds_received_count":0,"url":"http://dribbble.com/RafaelaDecarli","avatar_url":"https://d13yacurqjgara.cloudfront.net/users/627614/avatars/normal/4ad09cbe749ae76d8ba37573e10d2646.jpeg?1407333987","username":"RafaelaDecarli","twitter_screen_name":"RafaelaDecarli","website_url":"http://cargocollective.com/rafadecarli","drafted_by_player_id":18651,"shots_count":1,"following_count":1,"created_at":"2014/08/06 10:06:21 -0400"},"created_at":"2014/08/06 10:15:14 -0400"},{"id":1673337,"title":"Bike Shop","description":"\u003Cp\u003EBack from the archives and now on Cotton Bureau ;{D https://cottonbureau.com/products/bike-repair\u003C/p\u003E","height":300,"width":400,"likes_count":5,"comments_count":0,"rebounds_count":0,"url":"http://dribbble.com/shots/1673337-Bike-Shop","short_url":"http://drbl.in/lURD","views_count":29,"rebound_source_id":null,"image_url":"https://d13yacurqjgara.cloudfront.net/users/52033/screenshots/1673337/bike-shop.jpg","image_teaser_url":"https://d13yacurqjgara.cloudfront.net/users/52033/screenshots/1673337/bike-shop_teaser.jpg","player":{"id":52033,"name":"Clint WalkingStick","location":"Oklahoma City \u2022 OK","followers_count":311,"draftees_count":2,"likes_count":732,"likes_received_count":2463,"comments_count":294,"comments_received_count":405,"rebounds_count":88,"rebounds_received_count":87,"url":"http://dribbble.com/walkingstickdesign","avatar_url":"https://d13yacurqjgara.cloudfront.net/users/52033/avatars/normal/WDC-Twiticon.jpg?1389559687","username":"walkingstickdesign","twitter_screen_name":"WalkingStick_Co","website_url":"http://www.walkingstickdesign.com","drafted_by_player_id":21180,"shots_count":284,"following_count":433,"created_at":"2011/08/10 12:43:20 -0400"},"created_at":"2014/08/06 10:14:17 -0400"},{"id":1673336,"title":"Blog and Article App UI","description":"\u003Cp\u003EToday freebie is a application UI design concept for a blog or article app reading / writing. The pack contains more then 10 screens, log in, walkthrough, article listing list, article listing widget, latest posts, commenting, profile, followers, categories, settings, etc. Download it and have fun with it. You can build upon it or use it like this for your next mobile apps. Vector shapes, smart objects and layer styles makes everything easy to scale and edit.\u003C/p\u003E\n\n\u003Cp\u003E\u003Ca href=\"http://uifest.com/product/blog-and-article-app-ui\" rel=\"nofollow\"\u003EDownload\u003C/a\u003E\u003C/p\u003E\n\n\u003Cp\u003E\u003Ca href=\"http://uifest.com/product/blog-and-article-app-ui\" rel=\"nofollow\"\u003EPreview\u003C/a\u003E\u003C/p\u003E\n\n\u003Cp\u003E\u003Cstrong\u003EPress L for a beer.\u003C/strong\u003E\u003C/p\u003E","height":600,"width":800,"likes_count":0,"comments_count":0,"rebounds_count":0,"url":"http://dribbble.com/shots/1673336-Blog-and-Article-App-UI","short_url":"http://drbl.in/lURC","views_count":3,"rebound_source_id":null,"image_url":"https://d13yacurqjgara.cloudfront.net/users/607135/screenshots/1673336/thumb.png","image_teaser_url":"https://d13yacurqjgara.cloudfront.net/users/607135/screenshots/1673336/thumb_teaser.png","image_400_url":"https://d13yacurqjgara.cloudfront.net/users/607135/screenshots/1673336/thumb_1x.png","player":{"id":607135,"name":"uiFest","location":null,"followers_count":18,"draftees_count":0,"likes_count":0,"likes_received_count":32,"comments_count":0,"comments_received_count":4,"rebounds_count":0,"rebounds_received_count":0,"url":"http://dribbble.com/uiFest","avatar_url":"https://d13yacurqjgara.cloudfront.net/users/607135/avatars/normal/avatar.jpg?1404375344","username":"uiFest","twitter_screen_name":"uifest","website_url":"http://uifest.com","drafted_by_player_id":23542,"shots_count":2,"following_count":730,"created_at":"2014/07/03 04:14:58 -0400"},"created_at":"2014/08/06 10:12:52 -0400"},{"id":1673335,"title":"Simply Legal","description":"\u003Cp\u003ETemporary tattoo design.\u003C/p\u003E","height":600,"width":800,"likes_count":2,"comments_count":0,"rebounds_count":0,"url":"http://dribbble.com/shots/1673335-Simply-Legal","short_url":"http://drbl.in/lURB","views_count":5,"rebound_source_id":null,"image_url":"https://d13yacurqjgara.cloudfront.net/users/598368/screenshots/1673335/simply-legal.png","image_teaser_url":"https://d13yacurqjgara.cloudfront.net/users/598368/screenshots/1673335/simply-legal_teaser.png","image_400_url":"https://d13yacurqjgara.cloudfront.net/users/598368/screenshots/1673335/simply-legal_1x.png","player":{"id":598368,"name":"iris","location":null,"followers_count":2,"draftees_count":0,"likes_count":0,"likes_received_count":25,"comments_count":0,"comments_received_count":1,"rebounds_count":0,"rebounds_received_count":0,"url":"http://dribbble.com/irissprague1","avatar_url":"https://d13yacurqjgara.cloudfront.net/users/598368/avatars/normal/188d8803a223cbeffb2b192b81c67227.png?1406824425","username":"irissprague1","twitter_screen_name":null,"website_url":"http://irissprague.com","drafted_by_player_id":489481,"shots_count":6,"following_count":2,"created_at":"2014/06/18 12:16:57 -0400"},"created_at":"2014/08/06 10:12:26 -0400"}]}